scalar_mul/testbench/ks/test.vcd
$date
	Fri Nov 14 13:49:47 2014
$end
$version
	Icarus Verilog
$end
$timescale
	1ps
$end
$scope module state_machine_scalar_mul $end
$var wire 6 ! a_adbus [5:0] $end
$var wire 256 " a_data_in [255:0] $end
$var wire 1 # a_w $end
$var wire 1 $ clk $end
$var wire 6 % write_address [5:0] $end
$var wire 1 & w_inner $end
$var wire 1 ' transfer_running $end
$var wire 256 ( status [255:0] $end
$var wire 1 ) read_write_command_scalar_mul $end
$var wire 6 * read_address [5:0] $end
$var wire 1 + interupt_transfer $end
$var wire 1 , interupt_point_double $end
$var wire 1 - interupt_point_addition $end
$var wire 256 . data_out_outer [255:0] $end
$var wire 256 / data_out_frm_inner [255:0] $end
$var wire 256 0 data_in_to_outer [255:0] $end
$var wire 256 1 data_in_inner [255:0] $end
$var wire 2 2 command_add_double [1:0] $end
$var wire 256 3 command [255:0] $end
$var wire 1 4 cmd_transfer_scalar_mul $end
$var wire 1 5 b_outer $end
$var wire 6 6 adbus_outer_transfer [5:0] $end
$var wire 6 7 adbus_outer1 [5:0] $end
$var wire 6 8 adbus_inner [5:0] $end
$var wire 256 9 a_data_out [255:0] $end
$var reg 256 : Data_Polynomial [255:0] $end
$var reg 10 ; Data_len_Polynomial [9:0] $end
$var reg 6 < address_bus [5:0] $end
$var reg 4 = count [3:0] $end
$var reg 3 > fsm [2:0] $end
$var reg 2 ? no_of_chunks [1:0] $end
$var reg 576 @ private_key [575:0] $end
$var reg 1 A start $end
$var reg 6 B start_address [5:0] $end
$upscope $end
$enddefinitions $end
#0
$dumpvars
b10100 B
0A
bx @
bx ?
bx >
b0 =
bx <
bx ;
bx :
bx 9
bx 8
bx 7
bx 6
x5
x4
bx 3
bx 2
bx 1
bx 0
bx /
bx .
0-
0,
0+
bx *
x)
b0 (
0'
x&
bx %
1$
0#
b1001110101110011011000010110111100110101111101001010101100010100000001111101011100110101011000101100000100001111 "
b11 !
$end
#5
1#
0$
b1010010100101000001100000010011101111001010110001110111010000100110100010011000101011110110100110001100010000110 "
b110 !
#10
0#
1$
#15
1#
0$
b11000010001000001001010000110010100110111001111100011111111110011001001001110011101000010110000010000011110111 "
b1001 !
#20
0#
1$
#25
1#
0$
b111000100001010000000100000100100000001 "
b10100 !
#30
0#
1$
#35
1#
0$
b0 "
b10101 !
#40
0#
1$
#45
1#
0$
b10110 !
#50
0#
1$
#55
1#
0$
b100011 "
b10111 !
#60
0#
1$
#65
1#
0$
b1001110101110011011000010110111100110101111101001010101100010100000001111101011100110101011000101100000100001111 "
b11001 !
#70
0#
1$
#75
1#
0$
b1010010100101000001100000010011101111001010110001110111010000100110100010011000101011110110100110001100010000110 "
b11100 !
#80
0#
1$
#85
1#
0$
b10 "
b1 !
#90
0#
b10 3
1$
#95
0$
#100
b10100 7
b10 9
b1 =
b10100 <
1$
#105
0$
#110
b10101 7
b10101 <
b1 >
b0 =
b111000100001010000000100000100100000001 .
1$
#115
0$
#120
b10110 7
b0 .
b10 >
b111000100001010000000100000100100000001 :
b1 =
b10110 <
1$
#125
0$
#130
b10111 7
b0xxxxxxxxxxxxxxxxxxxxxxxxxxxxxxxxxxxxxxxxxxxxxxxxxxxxxxxxxxxxxxxxxxxxxxxxxxxxxxxxxxxxxxxxxxxxxxxxxxxxxxxxxxxxxxxxxxxxxxxxxxxxxxxxxxxxxxxxxxxxxxxxxxxxxxxxxxxxxxxxxxxxxxxxxxxxxxxxxxxxxxxxxxxxxxxxxxxxxxxxxxxxxxxxxxxxxxxxxxxxxxxxxxxxxxxxxxxxxxxxxxxxxxxxxxxxxxxxxxxxxxxxxxxxxxxxxxxxxxxxxxxxxxxxxxxxxxxxxxxxxxxxxxxxxxxxxxxxxxxxxxxxxxxxxxxxxxxxxxxxxxxxxxxxxxxxxxxxxxxxxxxxxxxxxxxxxxxxxxxxxxxxxxxxxxxxxxxxxxxxxxxxxxxxxxxxxxxxxxxxxxxxxxxxxxxxxxxxxxxxxxxxxxxxxxxxxxxxxxxxxxxxxxxxxxxxxxxxxxxxxxxxxxxxxxxxxxxxxxxxxxxxxxxxxxxx @
b1110001 ;
b11 >
b0 =
b10111 <
b1 ?
1$
#135
0$
#140
b10100 7
b100011 .
b0xxxxxxxxxxxxxxxxxxxxxxxxxxxxxxxxxxxxxxxxxxxxxxxxxxxxxxxxxxxxxxxxxxxxxxxxxxxxxxxxxxxxxxxxxxxxxxxxxxxxxxxxxxxxxxxxxxxxxxxxxxxxxxxxxxxxxxxxxxxxxxxxxxxxxxxxxxxxxxxxxxxxxxxxxxxxxxxxxxxxxxxxxxxxxxxxxxxxxxxxxxxxxxxxxxxxxxxxxxxxxxxxxxxxxxxxxxxxxxxxxxxxxxxxxxxxxxxx @
b100 >
b1 =
b10100 <
1$
#145
0$
#150
b10101 7
b100011 @
b10101 <
b101 >
b0 =
b111000100001010000000100000100100000001 .
1$
#155
0$
1#
b11 "
#160
0#
b10100 7
b11 3
b0 .
b1 =
b10100 <
1$
#165
0$
#170
b10101 7
b10101 <
b1 >
b0 =
b111000100001010000000100000100100000001 .
b11 9
1$
#175
0$
1#
b0 "
#180
0#
b10110 7
b0 3
b0 .
14
b11 %
b11 *
0)
b10 >
b10110 <
1$
#185
0$
#190
b10111 7
b10111 <
b11 >
04
b0 9
1$
#195
b0 !
0$
#200
b11 7
b100011 .
b11 6
1'
b100 >
1$
#205
0$
#210
b100 7
b101 >
b100 6
b1001110101110011011000010110111100110101111101001010101100010100000001111101011100110101011000101100000100001111 .
1$
#215
0$
#220
bx .
b11 8
b1001110101110011011000010110111100110101111101001010101100010100000001111101011100110101011000101100000100001111 1
1&
1+
1$
#225
0$
#230
14
b110 %
b110 *
0+
05
0&
1$
#235
0$
#240
b1001110101110011011000010110111100110101111101001010101100010100000001111101011100110101011000101100000100001111 /
04
1$
#245
0$
#250
b110 7
b110 6
1$
#255
0$
#260
b111 7
b1010010100101000001100000010011101111001010110001110111010000100110100010011000101011110110100110001100010000110 .
b111 6
1$
#265
0$
#270
b110 8
b1010010100101000001100000010011101111001010110001110111010000100110100010011000101011110110100110001100010000110 1
1&
1+
bx .
1$
#275
0$
#280
0+
0&
bx /
14
b1001 %
b1001 *
1$
#285
0$
#290
04
b1010010100101000001100000010011101111001010110001110111010000100110100010011000101011110110100110001100010000110 /
1$
#295
0$
#300
b1001 7
b1001 6
1$
#305
0$
#310
b1010 7
b1010 6
b11000010001000001001010000110010100110111001111100011111111110011001001001110011101000010110000010000011110111 .
1$
#315
0$
#320
bx .
b1001 8
b11000010001000001001010000110010100110111001111100011111111110011001001001110011101000010110000010000011110111 1
1&
1+
1$
#325
0$
#330
14
b100001 %
b11001 *
bx /
0+
0&
1$
#335
0$
#340
b11000010001000001001010000110010100110111001111100011111111110011001001001110011101000010110000010000011110111 /
04
1$
#345
0$
#350
b11001 7
b11001 6
1$
#355
0$
#360
b11010 7
b1001110101110011011000010110111100110101111101001010101100010100000001111101011100110101011000101100000100001111 .
b11010 6
1$
#365
0$
#370
b100001 8
b1001110101110011011000010110111100110101111101001010101100010100000001111101011100110101011000101100000100001111 1
1&
1+
bx .
1$
#375
0$
#380
0+
0&
bx /
14
b100111 %
b11100 *
1$
#385
0$
#390
04
b1001110101110011011000010110111100110101111101001010101100010100000001111101011100110101011000101100000100001111 /
1$
#395
0$
#400
b11100 7
b11100 6
1$
#405
0$
#410
b11101 7
b11101 6
b1010010100101000001100000010011101111001010110001110111010000100110100010011000101011110110100110001100010000110 .
1$
#415
0$
#420
bx .
b100111 8
b1010010100101000001100000010011101111001010110001110111010000100110100010011000101011110110100110001100010000110 1
1&
1+
1$
#425
0$
#430
bx /
0+
0&
1$
#435
0$
#440
b1010010100101000001100000010011101111001010110001110111010000100110100010011000101011110110100110001100010000110 /
b10 2
1$
#445
0$
#450
b0 2
1$
